id,first_name,last_name,email,country
1,Jimmy,ray,jray0@pcworld.com,United Kingdom
2,Andrew,bowman,abowman1@newyorker.com,United Kingdom
3,Cynthia,Vasquez,cvasquez2@ibm.com,United Kingdom
4,gloria,Garza,Ggarza3@technorati.com,United Kingdom
5,Jeffrey,Brooks,jbrooks4@netlog.com,United Kingdom
6,Kathy,Sanchez,ksanchez5@vimeo.com,United Kingdom
7,Nancy,Fields,EFields6@reuters.com,United Kingdom
8,lisa,Wright,lwright7@toplist.cz,United Kingdom
9,Andrew,Robertson,arobertson8@feedburner.com,United Kingdom
10,Tammy,Dixon,tdixon9@squidoo .com,United Kingdom
11,Ben,Jones,ben@.com,United Kingdom
12,Tom,Bryan,tombryan@grr.la,United States
